…
``` r
NYC_subway_selected_cols = select(NYC_subway,colnames(NYC_subway)[2:18],vending,ada)%>%
  mutate(
    entry = entry=="YES" #Only yes/no in this column
  )%>%
  unique()

NYC_subway_selected_cols
```

    ## # A tibble: 684 × 19
    ##    line     station_…¹ stati…² stati…³ route1 route2 route3 route4 route5 route6
    ##    <chr>    <chr>        <dbl>   <dbl> <chr>  <chr>  <chr>  <chr>  <chr>  <chr> 
    ##  1 4 Avenue 25th St       40.7   -74.0 R      <NA>   <NA>   <NA>   <NA>   <NA>  
    ##  2 4 Avenue 36th St       40.7   -74.0 N      R      <NA>   <NA>   <NA>   <NA>  
    ##  3 4 Avenue 45th St       40.6   -74.0 R      <NA>   <NA>   <NA>   <NA>   <NA>  
    ##  4 4 Avenue 53rd St       40.6   -74.0 R      <NA>   <NA>   <NA>   <NA>   <NA>  
    ##  5 4 Avenue 53rd St       40.6   -74.0 R      <NA>   <NA>   <NA>   <NA>   <NA>  
    ##  6 4 Avenue 59th St       40.6   -74.0 N      R      <NA>   <NA>   <NA>   <NA>  
    ##  7 4 Avenue 77th St       40.6   -74.0 R      <NA>   <NA>   <NA>   <NA>   <NA>  
    ##  8 4 Avenue 77th St       40.6   -74.0 R      <NA>   <NA>   <NA>   <NA>   <NA>  
    ##  9 4 Avenue 86th St       40.6   -74.0 R      <NA>   <NA>   <NA>   <NA>   <NA>  
    ## 10 4 Avenue 95th St       40.6   -74.0 R      <NA>   <NA>   <NA>   <NA>   <NA>  
    ## # … with 674 more rows, 9 more variables: route7 <chr>, route8 <dbl>,
    ## #   route9 <dbl>, route10 <dbl>, route11 <dbl>, entrance_type <chr>,
    ## #   entry <lgl>, vending <chr>, ada <lgl>, and abbreviated variable names
    ## #   ¹​station_name, ²​station_latitude, ³​station_longitude
…
